(kicad_symbol_lib (version 20220914) (generator kicad_symbol_editor)
  (symbol "STPMIC1DPQR" (in_bom yes) (on_board yes)
    (property "Reference" "U" (at 0 -0.965 0)
      (effects (font (size 1.27 1.27)) (justify left top))
    )
    (property "Value" "STPMIC1DPQR" (at 0 -3.175 0)
      (effects (font (size 1.27 1.27)) (justify left top))
    )
    (property "Footprint" "QFN40P500X600X80-45N-D" (at 0 -5.08 0)
      (effects (font (size 1.27 1.27)) (justify left top) hide)
    )
    (property "Datasheet" "https://www.arrow.com/en/products/stpmic1dpqr/stmicroelectronics?region=nac" (at 0 -6.985 0)
      (effects (font (size 1.27 1.27)) (justify left top) hide)
    )
    (property "Height" "0.8" (at 36.83 -382.22 0)
      (effects (font (size 1.27 1.27)) (justify left top) hide)
    )
    (property "Mouser Part Number" "511-STPMIC1DPQR" (at 36.83 -482.22 0)
      (effects (font (size 1.27 1.27)) (justify left top) hide)
    )
    (property "Mouser Price/Stock" "https://www.mouser.co.uk/ProductDetail/STMicroelectronics/STPMIC1DPQR?qs=DPoM0jnrROUtbktyhjMLoQ%3D%3D" (at 36.83 -582.22 0)
      (effects (font (size 1.27 1.27)) (justify left top) hide)
    )
    (property "Manufacturer_Name" "STMicroelectronics" (at 36.83 -682.22 0)
      (effects (font (size 1.27 1.27)) (justify left top) hide)
    )
    (property "Manufacturer_Part_Number" "STPMIC1DPQR" (at 36.83 -782.22 0)
      (effects (font (size 1.27 1.27)) (justify left top) hide)
    )
    (property "ki_description" "Power Management Specialized - PMIC 14 Output Rails PMIC 4 Adjustable (COT) Buck SMPS converters BOOST with Bypass" (at 0 0 0)
      (effects (font (size 1.27 1.27)) hide)
    )
    (symbol "STPMIC1DPQR_1_1"
      (rectangle (start 0 163.83) (end 30.48 0)
        (stroke (width 0.254) (type default))
        (fill (type background))
      )
      (pin input line (at -5.08 9.525 0) (length 5.08)
        (name "RSTN" (effects (font (size 1.27 1.27))))
        (number "1" (effects (font (size 1.27 1.27))))
      )
      (pin power_in line (at -5.08 139.065 0) (length 5.08)
        (name "PGND2" (effects (font (size 1.27 1.27))))
        (number "10" (effects (font (size 1.27 1.27))))
      )
      (pin power_out line (at 35.56 144.145 180) (length 5.08)
        (name "VLX2" (effects (font (size 1.27 1.27))))
        (number "11" (effects (font (size 1.27 1.27))))
      )
      (pin power_in line (at -5.08 146.685 0) (length 5.08)
        (name "BUCK2IN" (effects (font (size 1.27 1.27))))
        (number "12" (effects (font (size 1.27 1.27))))
      )
      (pin power_in line (at -5.08 78.74 0) (length 5.08)
        (name "LDO3IN" (effects (font (size 1.27 1.27))))
        (number "13" (effects (font (size 1.27 1.27))))
      )
      (pin power_out line (at 35.56 78.74 180) (length 5.08)
        (name "LDO3OUT" (effects (font (size 1.27 1.27))))
        (number "14" (effects (font (size 1.27 1.27))))
      )
      (pin power_in line (at -5.08 33.02 0) (length 5.08)
        (name "GNDLDO" (effects (font (size 1.27 1.27))))
        (number "15" (effects (font (size 1.27 1.27))))
      )
      (pin power_out line (at 35.56 33.02 180) (length 5.08)
        (name "VREFDDR" (effects (font (size 1.27 1.27))))
        (number "16" (effects (font (size 1.27 1.27))))
      )
      (pin input line (at -5.08 1.905 0) (length 5.08)
        (name "PONKEYN" (effects (font (size 1.27 1.27))))
        (number "17" (effects (font (size 1.27 1.27))))
      )
      (pin power_out line (at 35.56 58.42 180) (length 5.08)
        (name "LDO2OUT" (effects (font (size 1.27 1.27))))
        (number "18" (effects (font (size 1.27 1.27))))
      )
      (pin power_in line (at -5.08 55.88 0) (length 5.08)
        (name "LDO25IN" (effects (font (size 1.27 1.27))))
        (number "19" (effects (font (size 1.27 1.27))))
      )
      (pin input line (at -5.08 4.445 0) (length 5.08)
        (name "WAKEUP" (effects (font (size 1.27 1.27))))
        (number "2" (effects (font (size 1.27 1.27))))
      )
      (pin power_out line (at 35.56 53.34 180) (length 5.08)
        (name "LDO5OUT" (effects (font (size 1.27 1.27))))
        (number "20" (effects (font (size 1.27 1.27))))
      )
      (pin power_out line (at 35.56 64.77 180) (length 5.08)
        (name "LDO6OUT" (effects (font (size 1.27 1.27))))
        (number "21" (effects (font (size 1.27 1.27))))
      )
      (pin power_in line (at -5.08 67.31 0) (length 5.08)
        (name "LDO16IN" (effects (font (size 1.27 1.27))))
        (number "22" (effects (font (size 1.27 1.27))))
      )
      (pin power_out line (at 35.56 69.85 180) (length 5.08)
        (name "LDO1OUT" (effects (font (size 1.27 1.27))))
        (number "23" (effects (font (size 1.27 1.27))))
      )
      (pin power_in line (at -5.08 116.205 0) (length 5.08)
        (name "BUCK4IN" (effects (font (size 1.27 1.27))))
        (number "24" (effects (font (size 1.27 1.27))))
      )
      (pin power_out line (at 35.56 113.665 180) (length 5.08)
        (name "VLX4" (effects (font (size 1.27 1.27))))
        (number "25" (effects (font (size 1.27 1.27))))
      )
      (pin power_in line (at -5.08 108.585 0) (length 5.08)
        (name "PGND4" (effects (font (size 1.27 1.27))))
        (number "26" (effects (font (size 1.27 1.27))))
      )
      (pin power_out line (at 35.56 116.205 180) (length 5.08)
        (name "VOUT4" (effects (font (size 1.27 1.27))))
        (number "27" (effects (font (size 1.27 1.27))))
      )
      (pin power_in line (at -5.08 131.445 0) (length 5.08)
        (name "BUCK3IN" (effects (font (size 1.27 1.27))))
        (number "28" (effects (font (size 1.27 1.27))))
      )
      (pin power_out line (at 35.56 128.905 180) (length 5.08)
        (name "VLX3" (effects (font (size 1.27 1.27))))
        (number "29" (effects (font (size 1.27 1.27))))
      )
      (pin bidirectional line (at -5.08 14.605 0) (length 5.08)
        (name "SDA" (effects (font (size 1.27 1.27))))
        (number "3" (effects (font (size 1.27 1.27))))
      )
      (pin power_in line (at -5.08 123.825 0) (length 5.08)
        (name "PGND3" (effects (font (size 1.27 1.27))))
        (number "30" (effects (font (size 1.27 1.27))))
      )
      (pin power_out line (at 35.56 131.445 180) (length 5.08)
        (name "VOUT3" (effects (font (size 1.27 1.27))))
        (number "31" (effects (font (size 1.27 1.27))))
      )
      (pin power_in line (at -5.08 93.98 0) (length 5.08)
        (name "PGBOOST" (effects (font (size 1.27 1.27))))
        (number "32" (effects (font (size 1.27 1.27))))
      )
      (pin power_in line (at -5.08 101.6 0) (length 5.08)
        (name "VLXBST" (effects (font (size 1.27 1.27))))
        (number "33" (effects (font (size 1.27 1.27))))
      )
      (pin power_out line (at 35.56 100.965 180) (length 5.08)
        (name "BOUT" (effects (font (size 1.27 1.27))))
        (number "34" (effects (font (size 1.27 1.27))))
      )
      (pin power_out line (at 35.56 93.98 180) (length 5.08)
        (name "VBUSOTG" (effects (font (size 1.27 1.27))))
        (number "35" (effects (font (size 1.27 1.27))))
      )
      (pin power_in line (at -5.08 44.45 0) (length 5.08)
        (name "VIN" (effects (font (size 1.27 1.27))))
        (number "36" (effects (font (size 1.27 1.27))))
      )
      (pin power_in line (at -5.08 86.36 0) (length 5.08)
        (name "SWIN" (effects (font (size 1.27 1.27))))
        (number "37" (effects (font (size 1.27 1.27))))
      )
      (pin power_out line (at 35.56 86.36 180) (length 5.08)
        (name "SWOUT" (effects (font (size 1.27 1.27))))
        (number "38" (effects (font (size 1.27 1.27))))
      )
      (pin power_out line (at 35.56 41.91 180) (length 5.08)
        (name "LDO4OUT" (effects (font (size 1.27 1.27))))
        (number "39" (effects (font (size 1.27 1.27))))
      )
      (pin input line (at -5.08 17.145 0) (length 5.08)
        (name "SCL" (effects (font (size 1.27 1.27))))
        (number "4" (effects (font (size 1.27 1.27))))
      )
      (pin power_out line (at 35.56 46.99 180) (length 5.08)
        (name "INTLDO" (effects (font (size 1.27 1.27))))
        (number "40" (effects (font (size 1.27 1.27))))
      )
      (pin power_in line (at 35.56 4.445 180) (length 5.08)
        (name "AGND" (effects (font (size 1.27 1.27))))
        (number "41" (effects (font (size 1.27 1.27))))
      )
      (pin power_in line (at -5.08 22.225 0) (length 5.08)
        (name "VIO" (effects (font (size 1.27 1.27))))
        (number "42" (effects (font (size 1.27 1.27))))
      )
      (pin output line (at 35.56 9.525 180) (length 5.08)
        (name "INTN" (effects (font (size 1.27 1.27))))
        (number "43" (effects (font (size 1.27 1.27))))
      )
      (pin input line (at -5.08 12.065 0) (length 5.08)
        (name "PWRCTRL" (effects (font (size 1.27 1.27))))
        (number "44" (effects (font (size 1.27 1.27))))
      )
      (pin power_in line (at 35.56 1.905 180) (length 5.08)
        (name "EPGND" (effects (font (size 1.27 1.27))))
        (number "45" (effects (font (size 1.27 1.27))))
      )
      (pin power_out line (at 35.56 161.925 180) (length 5.08)
        (name "VOUT1" (effects (font (size 1.27 1.27))))
        (number "5" (effects (font (size 1.27 1.27))))
      )
      (pin power_in line (at -5.08 154.305 0) (length 5.08)
        (name "PGND1" (effects (font (size 1.27 1.27))))
        (number "6" (effects (font (size 1.27 1.27))))
      )
      (pin power_out line (at 35.56 159.385 180) (length 5.08)
        (name "VLX1" (effects (font (size 1.27 1.27))))
        (number "7" (effects (font (size 1.27 1.27))))
      )
      (pin power_in line (at -5.08 161.925 0) (length 5.08)
        (name "BUCK1IN" (effects (font (size 1.27 1.27))))
        (number "8" (effects (font (size 1.27 1.27))))
      )
      (pin power_out line (at 35.56 146.685 180) (length 5.08)
        (name "VOUT2" (effects (font (size 1.27 1.27))))
        (number "9" (effects (font (size 1.27 1.27))))
      )
    )
  )
)
