(kicad_symbol_lib (version 20220914) (generator kicad_symbol_editor)
  (symbol "UZ1085L-33-TN3-R" (in_bom yes) (on_board yes)
    (property "Reference" "U" (at 0 10.16 0)
      (effects (font (size 1.27 1.27)))
    )
    (property "Value" "UZ1085L-33-TN3-R" (at 0 -10.16 0)
      (effects (font (size 1.27 1.27)))
    )
    (property "Footprint" "UZ1085L-33-TN3-R:TO-252-2_L6.6-W6.1-P4.58-TL" (at 0 -12.7 0)
      (effects (font (size 1.27 1.27)) hide)
    )
    (property "Datasheet" "https://lcsc.com/product-detail/Low-Dropout-Regulators-LDO_UZ1085L-33-TN3-R_C125622.html" (at 0 -15.24 0)
      (effects (font (size 1.27 1.27)) hide)
    )
    (property "Manufacturer" "UTC(友顺)" (at 0 -17.78 0)
      (effects (font (size 1.27 1.27)) hide)
    )
    (property "LCSC Part" "C125622" (at 0 -20.32 0)
      (effects (font (size 1.27 1.27)) hide)
    )
    (property "JLC Part" "Extended Part" (at 0 -22.86 0)
      (effects (font (size 1.27 1.27)) hide)
    )
    (symbol "UZ1085L-33-TN3-R_0_1"
      (rectangle (start -6.35 7.62) (end 6.35 -7.62)
        (stroke (width 0) (type default))
        (fill (type background))
      )
    )
    (symbol "UZ1085L-33-TN3-R_1_1"
      (pin power_in line (at -11.43 0 0) (length 5.08)
        (name "ADJ/GND" (effects (font (size 1.27 1.27))))
        (number "2" (effects (font (size 1.27 1.27))))
      )
      (pin power_out line (at 11.43 -5.08 180) (length 5.08)
        (name "Vout" (effects (font (size 1.27 1.27))))
        (number "2" (effects (font (size 1.27 1.27))))
      )
      (pin power_in line (at 11.43 5.08 180) (length 5.08)
        (name "Vin" (effects (font (size 1.27 1.27))))
        (number "3" (effects (font (size 1.27 1.27))))
      )
    )
  )
)
